{"page":1,"limit":10,"explicit":false,"total":44,"has_more":true,"list":[{"created_time":1492441153,"description":"Avant-dernier \u00e9pisode de la premi\u00e8re saison de CHROMA, sur les Affranchis donc, qui est mon film pr\u00e9f\u00e9r\u00e9 de tous les temps et que je vous recommande bien s\u00fbr d'avoir vu avant de regarder la vid\u00e9o. <br \/> <br \/>L'\u00e9pisode contient \u00e9galement un spoil du Scarface de Brian De Palma. <br \/> <br \/>Et une imitation d'huitre. <br \/> <br \/>Vous pouvez trouver le Bluray des Affranchis (qui contient \u00e9galement le documentaire \"Public Enemies: The Golden Age of the Gangster Film\") ici : <br \/>https:\/\/www.amazon.fr\/Affranchis-%C3%89dition-25%C3%A8me-anniversaire-Digibook\/dp\/B00T8BY8FU\/ref=sr_1_1?ie=UTF8&qid=1492602508&sr=8-1&keywords=affranchis <br \/> <br \/>Le g\u00e9nial livre \"En un clin d'oeil\" de Walter Murch <br \/>https:\/\/www.amazon.fr\/En-clin-doeil-Walter-Murch\/dp\/2918040304\/ref=sr_1_cc_1?s=aps&ie=UTF8&qid=1492602850&sr=1-1-catcorr&keywords=en+un+clin+d%27oeil <br \/> <br \/>Le Bluray de Scarface : <br \/>https:\/\/www.amazon.fr\/Scarface-Blu-ray-Al-Pacino\/dp\/B008K1ZTR0\/ref=sr_1_2?s=dvd&ie=UTF8&qid=1492602648&sr=1-2&keywords=scarface <br \/> <br \/>Mean Streets : <br \/>https:\/\/www.amazon.fr\/Mean-Streets-%C3%89dition-Collector-Limit%C3%A9e\/dp\/B004IT5CBQ\/ref=sr_1_1?s=dvd&ie=UTF8&qid=1492602959&sr=1-1&keywords=mean+streets <br \/> <br \/>Taxi Driver : <br \/>https:\/\/www.amazon.fr\/Taxi-Driver-Blu-ray-Robert-Niro\/dp\/B004W4P1A4\/ref=sr_1_2?s=dvd&ie=UTF8&qid=1492602782&sr=1-2&keywords=taxi+driver <br \/> <br \/>La Couleur de l'argent : <br \/>https:\/\/www.amazon.fr\/Couleur-largent-Blu-ray-Paul-Newman\/dp\/B00BBEGNJ6\/ref=sr_1_1?s=dvd&ie=UTF8&qid=1492602983&sr=1-1&keywords=le+couleur+de+l%27argent <br \/> <br \/>Le Temps de l'innocence : <br \/>https:\/\/www.amazon.fr\/temps-linnocence-Blu-ray-Daniel-Day-Lewis\/dp\/B00O3LU7SM\/ref=sr_1_2?s=dvd&ie=UTF8&qid=1492603099&sr=1-2&keywords=le+temps+de+l%27innocence <br \/> <br \/>La Derni\u00e8re Tentation du Christ : <br \/>https:\/\/www.amazon.fr\/Derni%C3%A8re-tentation-Christ-Blu-ray\/dp\/B00BD7LJ0O\/ref=sr_1_2?s=dvd&ie=UTF8&qid=1492603140&sr=1-2&keywords=la+derni%C3%A8re+tentation+du+christ <br \/> <br \/>After Hours : <br \/>https:\/\/www.amazon.fr\/After-Hours-Griffin-Dunne\/dp\/B0002V5ZN4\/ref=sr_1_1?s=dvd&ie=UTF8&qid=1492603219&sr=1-1&keywords=after+hours <br \/> <br \/>Casino : <br \/>https:\/\/www.amazon.fr\/Casino-Blu-ray-Robert-Niro\/dp\/B001CRVXVU\/ref=sr_1_1?s=dvd&ie=UTF8&qid=1492603204&sr=1-1&keywords=casino <br \/> <br \/>Jules et Jim : <br \/>https:\/\/www.amazon.fr\/Jules-jim-Jeanne-Moreau\/dp\/B001GPGXRM\/ref=sr_1_1?ie=UTF8&qid=1492602904&sr=8-1&keywords=jules+et+jim <br \/> <br \/>A bout de souffle : <br \/>https:\/\/www.amazon.fr\/bout-souffle-Blu-ray-Jean-Seberg\/dp\/B01IDSEIO4\/ref=sr_1_3?s=dvd&ie=UTF8&qid=1492602814&sr=1-3&keywords=a+bout+de+souffle <br \/> <br \/> <br \/>La Playlist Spotify de CHROMA : <br \/>https:\/\/open.spotify.com\/user\/2bash\/playlist\/6Qj7nQKpOQxJz3Ol00SFop","id":"x5ikng3","thumbnail_720_url":"https:\/\/s2.dmcdn.net\/v\/JuJcp1UP-Uo96LBI4\/x720","title":"CHROMA S01.11 LES AFFRANCHIS"},{"created_time":1485792240,"description":"Un \u00e9pisode de No\u00eb... Presque. <br \/> <br \/>Le coffret des deux Gremlins en Blu Ray : <br \/>https:\/\/www.amazon.fr\/Gremlins-nouvelle-g%C3%A9n%C3%A9ration-Blu-ray\/dp\/B00TP21F9Y\/ref=sr_1_2?ie=UTF8&qid=1485871615&sr=8-2&keywords=gremlins <br \/> <br \/>Le coffret Blu Ray de The Burbs' : <br \/>https:\/\/www.amazon.fr\/Burbs-banlieusards-%C3%89dition-Coffret-Collector\/dp\/B01LXYD3R9\/ref=sr_1_1?ie=UTF8&qid=1485871678&sr=8-1&keywords=les+banlieusards <br \/> <br \/>Celui de Matinee : <br \/>https:\/\/www.amazon.fr\/Panic-sur-Florida-Beach-Blu-ray\/dp\/B004QJLCQ2\/ref=sr_1_1?ie=UTF8&qid=1485871725&sr=8-1&keywords=matinee <br \/> <br \/>Le DVD de Small Soldiers (Qui n'est pas sorti en Blu Ray en France, ce qui est fort dommage.) : <br \/>https:\/\/www.amazon.fr\/Small-Soldiers-Kirsten-Dunst\/dp\/B0000E6FUR\/ref=sr_1_1?ie=UTF8&qid=1485871760&sr=8-1&keywords=small+soldiers <br \/> <br \/>L'int\u00e9grale de Police Squad ! : <br \/>https:\/\/www.amazon.fr\/Police-Squad-Lint%C3%A9grale-Leslie-Nielsen\/dp\/B001I0N9Z4\/ref=sr_1_2?ie=UTF8&qid=1485871829&sr=8-2&keywords=police+squad%21 <br \/> <br \/>Le site Trailers from Hell : <br \/>https:\/\/trailersfromhell.com\/ <br \/> <br \/>Le Livre Joe Dante, L'Art du Jeu de Frank Lafont : <br \/>https:\/\/www.amazon.fr\/Joe-Dante-Lart-Frank-Lafond\/dp\/2915083460\/ref=sr_1_8?ie=UTF8&qid=1485871892&sr=8-8&keywords=joe+dante <br \/> <br \/>Un autre livre, que je ne cite pas dans l'\u00e9pisode mais qui est vraiment chouette: Joe Dante et les Gremlins de Hollywood , qui comprend masse d'entretiens avec Joe Dante. (Et \u00e0 ma connaissance, il n'existe que deux livres fran\u00e7ais qui parlent de Joe Dante, comme \u00e7a vous avez les deux.) : <br \/>https:\/\/www.amazon.fr\/dante-Gremlins-hollywood-Bill-Krohn\/dp\/2866422503\/ref=sr_1_1?ie=UTF8&qid=1485871927&sr=8-1&keywords=joe+dante+gremlins <br \/> <br \/>Le superbe livre de Sidney Lumet, Faire un Film : <br \/>https:\/\/www.amazon.fr\/Faire-un-film-Sidney-Lumet\/dp\/B01C9U60GQ\/ref=sr_1_1?ie=UTF8&qid=1485872066&sr=8-1&keywords=faire+un+film <br \/> <br \/>J'utilise \u00e9galement des extraits du documentaire Corman's World : Exploits of a Hollywood Rebel. Qui parle de Roger Corman : <br \/>https:\/\/www.amazon.fr\/Cormans-World-Blu-ray-anglais-Robert\/dp\/B005ZD5Q6U\/ref=sr_1_7?ie=UTF8&qid=1485872086&sr=8-7&keywords=roger+corman <br \/> <br \/>et la playlist Spotify de CHROMA : <br \/>spotify:user:2bash:playlist:6Qj7nQKpOQxJz3Ol00SFop","id":"x5a365y","thumbnail_720_url":"https:\/\/s2.dmcdn.net\/v\/J1x_s1UQfBxhinmT-\/x720","title":"CHROMA S01.10.GREMLINS"},{"created_time":1481207306,"description":"Un \u00e9pisode de No\u00ebl ! Avec un film qui se passe vraiment \u00e0 No\u00ebl ! <br \/> <br \/>Attention ! <br \/> <br \/>Cet \u00e9pisode contient des images pouvant heurter la sensibilit\u00e9 des plus jeunes. <br \/> <br \/>Vous \u00eates pr\u00e9venus. <br \/> <br \/>Le dvd de Silent Night, Deadly Night 1 et 2. <br \/>https:\/\/www.amazon.fr\/Douce-nuit-sanglante-2\/dp\/B000B8X2JM\/ref=sr_1_1?ie=UTF8&qid=1481198305&sr=8-1&keywords=douce+nuit+sanglante+nuit <br \/> <br \/>Le Bluray d'Halloween, qui contient le documentaire 25 Ans de Terreur dont j'utilise des extraits. <br \/>https:\/\/www.amazon.fr\/Halloween-nuit-masques-Combo-Blu-ray\/dp\/B0058JDC6W\/ref=sr_1_3?s=dvd&ie=UTF8&qid=1481198383&sr=1-3&keywords=halloween <br \/> <br \/>Le documentaire Going To Pieces : The Rise and Fall of the Slasher Film, dont j'utilise \u00e9galement des extraits. <br \/>https:\/\/www.amazon.fr\/Going-Pieces-Rise-Fall-Slasher\/dp\/B01M4QNKZX\/ref=sr_1_9?s=dvd&ie=UTF8&qid=1481198500&sr=1-9&keywords=slasher <br \/> <br \/>Les DVDs\/Blurays de Vendredi 13,  Jason le Mort-Vivant, La Saga des Griffes de la Nuit, The Burning, Les Tueurs de l'Eclipse. <br \/>https:\/\/www.amazon.fr\/Vendredi-13-Blu-ray-Betsy-Palmer\/dp\/B002GCKNG6\/ref=sr_1_2?s=dvd&ie=UTF8&qid=1481200666&sr=1-2&keywords=friday+the+13th <br \/>https:\/\/www.amazon.fr\/Vendredi-13-Chapitre-Jason-vivant\/dp\/B000065DE2\/ref=sr_1_1?s=dvd&ie=UTF8&qid=1481200846&sr=1-1&keywords=jason+lives <br \/>https:\/\/www.amazon.fr\/Freddy-Lint%C3%A9grale-Blu-ray-Robert-Englund\/dp\/B005MRMEX2\/ref=sr_1_2?s=dvd&ie=UTF8&qid=1481200997&sr=1-2&keywords=nightmare+on+elm+street <br \/>https:\/\/www.amazon.fr\/Carnage-Combo-DVD-Blu-ray-Collector\/dp\/B01LYYKSD5\/ref=sr_1_1?s=dvd&ie=UTF8&qid=1481201030&sr=1-1&keywords=the+burning <br \/>https:\/\/www.amazon.fr\/Bloody-Birthday-Edizione-Blu-ray-anglais\/dp\/B00IDBJS0Q\/ref=sr_1_1?s=dvd&ie=UTF8&qid=1481201143&sr=1-1&keywords=bloody+birthday <br \/> <br \/> <br \/>Le livre Qu'est-ce qu'un bon film ?, de Laurent Jullier. <br \/>https:\/\/www.amazon.fr\/Quest-ce-quun-film-Laurent-Jullier\/dp\/2843032121 <br \/> <br \/>et la playlist Spotify de CHROMA. <br \/>spotify:user:2bash:playlist:6Qj7nQKpOQxJz3Ol00SFop","id":"x54m781","thumbnail_720_url":"https:\/\/s2.dmcdn.net\/v\/IUuOH1UQIkJF78WQB\/x720","title":"CHROMA S01.09. DOUCE NUIT, SANGLANTE NUIT"},{"created_time":1477403918,"description":"Huiti\u00e8me \u00e9pisode de CHROMA sur Pi\u00e8ge \u00e0 Hong Kong de Tsui Hark. <br \/>\"Un film d'action o\u00f9 on transpire pas, j'appelle pas \u00e7a un film d'action.\" <br \/> <br \/>Vous pouvez trouver le DVD de \"Pi\u00e8ge \u00e0 Hong Kong\" ici : <br \/>https:\/\/www.amazon.fr\/Pi%C3%A8ge-Hong-Kong-Jean-Claude-Damme\/dp\/B00008GRAQ\/ref=sr_1_1?s=dvd&ie=UTF8&qid=1477563510&sr=1-1&keywords=piege+a+hong+kong <br \/> <br \/>Celui de Time and Tide l\u00e0 : <br \/>https:\/\/www.amazon.fr\/Time-Tide-Nicolas-Tse\/dp\/B000066613\/ref=sr_1_1?s=dvd&ie=UTF8&qid=1477563569&sr=1-1&keywords=time+and+tide <br \/> <br \/>\"The Blade\" (Bon le prix en neuf est fou mais il est d'occasion aussi, c'est une tr\u00e8s bonne \u00e9dition.) : <br \/>https:\/\/www.amazon.fr\/Blade-Collector-limit%C3%A9e-postales-%C3%89dition\/dp\/B000F8ZN1S <br \/> <br \/>\"The Lovers\" (L\u00e0 c'est encore pire, m\u00eame d'occasion c'est cher, je ne comprends pas pourquoi. Mais encore une fois c'est une superbe \u00e9dition.) : <br \/>https:\/\/www.amazon.fr\/Lovers-%C3%89dition-Collector-Limit%C3%A9e\/dp\/B0009FVSKC\/ref=sr_1_2?s=dvd&ie=UTF8&qid=1477564786&sr=1-2&keywords=the+lovers <br \/> <br \/>La trilogie \"Il \u00e9tait une fois en Chine\" : <br \/>https:\/\/www.amazon.fr\/Il-%C3%A9tait-une-fois-Chine\/dp\/B00CS83ZV8\/ref=sr_1_1?s=dvd&ie=UTF8&qid=1477564993&sr=1-1&keywords=il+etait+une+fois+en+chine <br \/> <br \/>La playlist Spotify de CHROMA : <br \/>https:\/\/open.spotify.com\/user\/2bash\/playlist\/6Qj7nQKpOQxJz3Ol00SFop <br \/> <br \/>Bon \u00e9pisode !","id":"x4yzane","thumbnail_720_url":"https:\/\/s2.dmcdn.net\/v\/HwnAg1UQXhN1qFedT\/x720","title":"CHROMA S01.08. PI\u00c8GE \u00c0 HONG KONG"},{"created_time":1473684014,"description":"Septi\u00e8me \u00e9pisode de CHROMA sur Vidocq de Pitof.  <br \/> <br \/>Attention, le film contient plusieurs retournements de situation, dont un qui arrive au tout d\u00e9but du film. Si vous ne souhaitez pas vous faire spoiler pour vivre l'aventure \u00e0 fond, n'h\u00e9sitez pas \u00e0 regarder le film avant. <br \/> <br \/>Vous pouvez le trouver ici en DVD :  <br \/>https:\/\/www.amazon.fr\/Vidocq-%C3%89dition-Single-G%C3%A9rard-Depardieu\/dp\/B00007LUU9\/ref=sr_1_1_twi_dvd_2?ie=UTF8&qid=1473683533&sr=8-1 <br \/> <br \/>Et en Bluray 3D allemand l\u00e0. <br \/>https:\/\/www.amazon.fr\/Vidocq-3D-Vers-Blu-ray-allemand\/dp\/B004X4WTOE\/ref=sr_1_1_twi_blu_1?ie=UTF8&qid=1473683533&sr=8-1 <br \/> <br \/>Le livre La Fin du Cin\u00e9ma : <br \/>https:\/\/www.amazon.fr\/cin\u00e9ma-m\u00e9dia-crise-l\u00e8re-num\u00e9rique\/dp\/2200287321\/ref=sr_1_1?ie=UTF8&qid=1473683643&sr=8-1 <br \/> <br \/>Le Director's Cut de \"Zodiac\" de David Fincher : <br \/>https:\/\/www.amazon.fr\/Zodiac-Directors-Cut-Blu-ray\/dp\/B001927NA8\/ref=sr_1_1_twi_blu_1?ie=UTF8&qid=1473683674&sr=8-1 <br \/> <br \/>et la playlist Spotify de CHROMA : <br \/>spotify:user:2bash:playlist:6Qj7nQKpOQxJz3Ol00SFop","id":"x4sxtow","thumbnail_720_url":"https:\/\/s2.dmcdn.net\/v\/HK42G1UQI1_kSxXcY\/x720","title":"CHROMA S01.07. VIDOCQ"},{"created_time":1469116614,"description":"Ce mois ci on vous propose un \"bip\" d'\u00e9pisode. <br \/> <br \/>Vous pouvez trouver le film ici : https:\/\/www.amazon.fr\/MAC-AND-ME\/dp\/B004M3C2DY\/ref=cm_cr_arp_d_product_top?ie=UTF8 <br \/> <br \/>Le bluray de \"E.T L'Extraterrestre\" ici : https:\/\/www.amazon.fr\/E-T-lExtra-Terrestre-Combo-Blu-ray-DVD\/dp\/B0087OYKM0\/ref=sr_1_3?s=dvd&ie=UTF8&qid=1469288446&sr=1-3&keywords=et+l+extraterrestre+bluray <br \/> <br \/>Le livre \"Les produits et les marques au cin\u00e9ma\" de Delphine Le Nozach :https:\/\/www.amazon.fr\/produits-marques-au-cin%C3%A9ma\/dp\/2336008750\/ref=sr_1_1?ie=UTF8&qid=1469288562&sr=8-1&keywords=les+produits+et+les+marques+au+cinema <br \/> <br \/>Bisous","id":"x4l7o3v","thumbnail_720_url":"https:\/\/s1.dmcdn.net\/v\/GYZhB1UQI1ufjJ4CL\/x720","title":"CHROMA S01.06. MAC ET MOI"},{"created_time":1465243370,"description":"Cinqui\u00e8me \u00e9pisode de CHROMA. <br \/>On s\u2019int\u00e9resse aujourd'hui au film le plus rentable de l'histoire du cin\u00e9ma.  <br \/> <br \/>La playlist Spotify : <br \/>spotify:user:2bash:playlist:6Qj7nQKpOQxJz3Ol00SFop <br \/> <br \/>Vous pouvez trouver le film ici : <br \/>https:\/\/www.amazon.fr\/Paranormal-Activity-Blu-ray-Katie-Featherston\/dp\/B0069RWKOC\/ref=sr_1_9?s=dvd&ie=UTF8&qid=1465242833&sr=1-9&keywords=paranormal+activity <br \/> <br \/>Et le livre sur le found footage dont je parle ici : <br \/>https:\/\/www.amazon.fr\/gp\/product\/2915083835\/ref=oh_aui_detailpage_o06_s00?ie=UTF8&psc=1 <br \/> <br \/>Vous pouvez aussi trouver \"Notes sur le cin\u00e9matographe\" ici : <br \/>https:\/\/www.amazon.fr\/Notes-sur-cin%C3%A9matographe-Robert-Bresson\/dp\/2070393127 <br \/> <br \/>Et \"Qu'est ce que le cin\u00e9ma\" l\u00e0 : <br \/>https:\/\/www.amazon.fr\/Quest-ce-que-cin%C3%A9ma-Andr%C3%A9-Bazin\/dp\/2204024198\/ref=sr_1_1?s=books&ie=UTF8&qid=1465256372&sr=1-1&keywords=qu%27est+ce+que+le+cin%C3%A9ma <br \/> <br \/>Bisous.","id":"x4eq3z9","thumbnail_720_url":"https:\/\/s2.dmcdn.net\/v\/Fu_Ib1UQXhPi8enwI\/x720","title":"CHROMA S01.05. PARANORMAL ACTIVITY"},{"created_time":1460965339,"description":"Quatri\u00e8me \u00e9pisode de CHROMA. <br \/>Bon y a un mec chelou qui squatte la vid\u00e9o. <br \/>Ne faites pas gaffe \u00e0 lui. <br \/> <br \/>La playlist Spotify : <br \/>spotify:user:2bash:playlist:6Qj7nQKpOQxJz3Ol00SFop <br \/> <br \/>Vous pouvez trouver le film ici : <br \/>https:\/\/www.amazon.fr\/Signes-Blu-ray-Mel-Gibson\/dp\/B0013TMTAQ\/ref=sr_1_1?ie=UTF8&qid=1460967524&sr=8-1&keywords=signes <br \/> <br \/>Incassable l\u00e0 : <br \/>https:\/\/www.amazon.fr\/Incassable-Blu-ray-Bruce-Willis\/dp\/B0013TMTBU\/ref=sr_1_1?ie=UTF8&qid=1460967568&sr=8-1&keywords=incassable <br \/> <br \/>La Balade Sauvage : <br \/>https:\/\/www.amazon.fr\/Ballade-Sauvage-Martin-Sheen\/dp\/B00008ARDW\/ref=sr_1_1?ie=UTF8&qid=1460967620&sr=8-1&keywords=balade+sauvage <br \/> <br \/>Et le livre sur Shyamalan dont je parle ici : <br \/>https:\/\/www.amazon.fr\/Contes-lau-del%C3%A0-cin%C3%A9ma-Night-Shyamalan\/dp\/2363581571\/ref=sr_1_2?ie=UTF8&qid=1460967654&sr=8-2&keywords=contes+de+l%27au+dela <br \/> <br \/>Tuce","id":"x458bdl","thumbnail_720_url":"https:\/\/s1.dmcdn.net\/v\/EyA2P1UQBppvnHzHL\/x720","title":"CHROMA S01.04. SIGNES"},{"created_time":1457800951,"description":"Troisi\u00e8me \u00e9pisode de Chroma et aujourd'hui on s\u2019int\u00e9resse \u00e0 la suite la plus chelou du monde. <br \/> <br \/>Un tr\u00e8s grand merci \u00e0 Patrick, Matthieu et Nicolas du studio Polyson. <br \/> <br \/>La playlist Spotify : <br \/>spotify:user:2bash:playlist:6Qj7nQKpOQxJz3Ol00SFop <br \/> <br \/>Vous pouvez trouver le film ici : <br \/>http:\/\/www.amazon.fr\/Highlander-2-retour-Christophe-Lambert\/dp\/B000065UD8\/ref=sr_1_1?ie=UTF8&qid=1457964198&sr=8-1&keywords=highlander+le+retour <br \/> <br \/>et la Renegade Version, qui contient le charme de l'Argentine l\u00e0 : <br \/>http:\/\/www.amazon.fr\/Highlander-Renegade-Version-Christophe-Lambert\/dp\/B000M2EHK0\/ref=sr_1_1?ie=UTF8&qid=1457964276&sr=8-1&keywords=renegade+version <br \/> <br \/>Tuce","id":"x3xg0nh","thumbnail_720_url":"https:\/\/s1.dmcdn.net\/v\/EAHHD1UQBlg1S_Fys\/x720","title":"CHROMA S01.03. HIGHLANDER 2"},{"created_time":1455031689,"description":"Nouvel \u00e9pisode de Chroma avec cette fois un film r\u00e9alis\u00e9 par un immense cin\u00e9aste. On esp\u00e8re que \u00e7a vous plaira ! <br \/> <br \/>Un tr\u00e8s grand merci \u00e0 la Biblioth\u00e8que de Chaville pour nous avoir laiss\u00e9 filmer un trentenaire avec une veste en jean sans manche rempli de pin's. <br \/> <br \/>Et un autre tr\u00e8s grand merci au bar le Carlie, pour des raisons similaires : <br \/>http:\/\/www.lecarliebar.com\/ <br \/> <br \/>Voil\u00e0 le lien vers la conf\u00e9rence de Jacques Aumont sur le montage d'attractions dont je parle dans l'\u00e9pisode : <br \/>http:\/\/www.dailymotion.com\/video\/xb6cq8_s-m-eisenstein-le-montage-d-attract_shortfilms <br \/> <br \/>La playlist Spotify : <br \/>spotify:user:2bash:playlist:6Qj7nQKpOQxJz3Ol00SFop <br \/> <br \/>Vous pouvez trouver le film ici : <br \/>http:\/\/www.amazon.fr\/Rollerball-Blu-ray-Jean-Reno\/dp\/B001CCHQ20\/ref=sr_1_2?ie=UTF8&qid=1455480107&sr=8-2&keywords=rollerball <br \/> <br \/>L'original l\u00e0 : <br \/>http:\/\/www.amazon.fr\/Rollerball-James-Caan\/dp\/B00005UEGU\/ref=sr_1_1?ie=UTF8&qid=1455480296&sr=8-1&keywords=rollerball <br \/> <br \/>Election d'Alexander Payne :  <br \/>http:\/\/www.amazon.fr\/LARRIVISTE\/dp\/B002YNQ3HU\/ref=sr_1_1?ie=UTF8&qid=1455480354&sr=8-1&keywords=l%27arriviste <br \/> <br \/>Un coffret d\u00e9di\u00e9 \u00e0 Einsenstein :  <br \/>http:\/\/www.amazon.fr\/Int%C3%A9grale-Eisenstein-S-M-Eisenstein\/dp\/B0017IYWCG\/ref=sr_1_1?ie=UTF8&qid=1455480462&sr=8-1&keywords=eisenstein <br \/> <br \/>Et surtout tout plein de films de John Mctiernan : <br \/>http:\/\/www.amazon.fr\/s\/ref=nb_sb_noss?__mk_fr_FR=%C3%85M%C3%85%C5%BD%C3%95%C3%91&url=search-alias%3Daps&field-keywords=john+mctiernan <br \/> <br \/>Tuce","id":"x3r6gba","thumbnail_720_url":"https:\/\/s2.dmcdn.net\/v\/DY7yM1UQBNott-OL4\/x720","title":"CHROMA S01.02. ROLLERBALL"}]}