{
  "page":1,
  "limit":10,
  "explicit":false,
  "total":44,
  "has_more":true,
  "list":[
    {
      "id":"x5ikng3"
    }
  ]
}
