{
  "page":1,
  "limit":10,
  "explicit":false,
  "total":44,
  "has_more":true,
  "list":[
    {
      "id":"x5ikng3"
    },
    {
      "id":"x5a365y"
    },
    {
      "id":"x54m781"
    },
    {
      "id":"x4yzane"
    },
    {
      "id":"x4sxtow"
    },
    {
      "id":"x4l7o3v"
    },
    {
      "id":"x4eq3z9"
    },
    {
      "id":"x458bdl"
    },
    {
      "id":"x3xg0nh"
    },
    {
      "id":"x3r6gba"
    }
  ]
}
