{
  "page":1,
  "limit":10,
  "explicit":false,
  "total":44,
  "has_more":true,
  "list":[
    {
      "created_time":1492441153,
      "description":"Avant-dernier \u00e9pisode de la premi\u00e8re saison de CHROMA, sur les Affranchis donc, qui est mon film pr\u00e9f\u00e9r\u00e9 de tous les temps et que je vous recommande bien s\u00fbr d'avoir vu avant de regarder la vid\u00e9o. <br \/> <br \/>L'\u00e9pisode contient \u00e9galement un spoil du Scarface de Brian De Palma. <br \/> <br \/>Et une imitation d'huitre. <br \/> <br \/>Vous pouvez trouver le Bluray des Affranchis (qui contient \u00e9galement le documentaire \"Public Enemies: The Golden Age of the Gangster Film\") ici : <br \/>https:\/\/www.amazon.fr\/Affranchis-%C3%89dition-25%C3%A8me-anniversaire-Digibook\/dp\/B00T8BY8FU\/ref=sr_1_1?ie=UTF8&qid=1492602508&sr=8-1&keywords=affranchis <br \/> <br \/>Le g\u00e9nial livre \"En un clin d'oeil\" de Walter Murch <br \/>https:\/\/www.amazon.fr\/En-clin-doeil-Walter-Murch\/dp\/2918040304\/ref=sr_1_cc_1?s=aps&ie=UTF8&qid=1492602850&sr=1-1-catcorr&keywords=en+un+clin+d%27oeil <br \/> <br \/>Le Bluray de Scarface : <br \/>https:\/\/www.amazon.fr\/Scarface-Blu-ray-Al-Pacino\/dp\/B008K1ZTR0\/ref=sr_1_2?s=dvd&ie=UTF8&qid=1492602648&sr=1-2&keywords=scarface <br \/> <br \/>Mean Streets : <br \/>https:\/\/www.amazon.fr\/Mean-Streets-%C3%89dition-Collector-Limit%C3%A9e\/dp\/B004IT5CBQ\/ref=sr_1_1?s=dvd&ie=UTF8&qid=1492602959&sr=1-1&keywords=mean+streets <br \/> <br \/>Taxi Driver : <br \/>https:\/\/www.amazon.fr\/Taxi-Driver-Blu-ray-Robert-Niro\/dp\/B004W4P1A4\/ref=sr_1_2?s=dvd&ie=UTF8&qid=1492602782&sr=1-2&keywords=taxi+driver <br \/> <br \/>La Couleur de l'argent : <br \/>https:\/\/www.amazon.fr\/Couleur-largent-Blu-ray-Paul-Newman\/dp\/B00BBEGNJ6\/ref=sr_1_1?s=dvd&ie=UTF8&qid=1492602983&sr=1-1&keywords=le+couleur+de+l%27argent <br \/> <br \/>Le Temps de l'innocence : <br \/>https:\/\/www.amazon.fr\/temps-linnocence-Blu-ray-Daniel-Day-Lewis\/dp\/B00O3LU7SM\/ref=sr_1_2?s=dvd&ie=UTF8&qid=1492603099&sr=1-2&keywords=le+temps+de+l%27innocence <br \/> <br \/>La Derni\u00e8re Tentation du Christ : <br \/>https:\/\/www.amazon.fr\/Derni%C3%A8re-tentation-Christ-Blu-ray\/dp\/B00BD7LJ0O\/ref=sr_1_2?s=dvd&ie=UTF8&qid=1492603140&sr=1-2&keywords=la+derni%C3%A8re+tentation+du+christ <br \/> <br \/>After Hours : <br \/>https:\/\/www.amazon.fr\/After-Hours-Griffin-Dunne\/dp\/B0002V5ZN4\/ref=sr_1_1?s=dvd&ie=UTF8&qid=1492603219&sr=1-1&keywords=after+hours <br \/> <br \/>Casino : <br \/>https:\/\/www.amazon.fr\/Casino-Blu-ray-Robert-Niro\/dp\/B001CRVXVU\/ref=sr_1_1?s=dvd&ie=UTF8&qid=1492603204&sr=1-1&keywords=casino <br \/> <br \/>Jules et Jim : <br \/>https:\/\/www.amazon.fr\/Jules-jim-Jeanne-Moreau\/dp\/B001GPGXRM\/ref=sr_1_1?ie=UTF8&qid=1492602904&sr=8-1&keywords=jules+et+jim <br \/> <br \/>A bout de souffle : <br \/>https:\/\/www.amazon.fr\/bout-souffle-Blu-ray-Jean-Seberg\/dp\/B01IDSEIO4\/ref=sr_1_3?s=dvd&ie=UTF8&qid=1492602814&sr=1-3&keywords=a+bout+de+souffle <br \/> <br \/> <br \/>La Playlist Spotify de CHROMA : <br \/>https:\/\/open.spotify.com\/user\/2bash\/playlist\/6Qj7nQKpOQxJz3Ol00SFop",
      "id":"x5ikng3",
      "title":"CHROMA S01.11 LES AFFRANCHIS"
    }
  ]
}
