{"page":1,"limit":10,"explicit":false,"total":35,"has_more":true,"list":[{"created_time":1455031689,"description":"Nouvel \u00e9pisode de Chroma avec cette fois un film r\u00e9alis\u00e9 par un immense cin\u00e9aste. On esp\u00e8re que \u00e7a vous plaira ! <br \/> <br \/>Un tr\u00e8s grand merci \u00e0 la Biblioth\u00e8que de Chaville pour nous avoir laiss\u00e9 filmer un trentenaire avec une veste en jean sans manche rempli de pin's. <br \/> <br \/>Et un autre tr\u00e8s grand merci au bar le Carlie, pour des raisons similaires : <br \/>http:\/\/www.lecarliebar.com\/ <br \/> <br \/>Voil\u00e0 le lien vers la conf\u00e9rence de Jacques Aumont sur le montage d'attractions dont je parle dans l'\u00e9pisode : <br \/>http:\/\/www.dailymotion.com\/video\/xb6cq8_s-m-eisenstein-le-montage-d-attract_shortfilms <br \/> <br \/>La playlist Spotify : <br \/>spotify:user:2bash:playlist:6Qj7nQKpOQxJz3Ol00SFop <br \/> <br \/>Vous pouvez trouver le film ici : <br \/>http:\/\/www.amazon.fr\/Rollerball-Blu-ray-Jean-Reno\/dp\/B001CCHQ20\/ref=sr_1_2?ie=UTF8&qid=1455480107&sr=8-2&keywords=rollerball <br \/> <br \/>L'original l\u00e0 : <br \/>http:\/\/www.amazon.fr\/Rollerball-James-Caan\/dp\/B00005UEGU\/ref=sr_1_1?ie=UTF8&qid=1455480296&sr=8-1&keywords=rollerball <br \/> <br \/>Election d'Alexander Payne :  <br \/>http:\/\/www.amazon.fr\/LARRIVISTE\/dp\/B002YNQ3HU\/ref=sr_1_1?ie=UTF8&qid=1455480354&sr=8-1&keywords=l%27arriviste <br \/> <br \/>Un coffret d\u00e9di\u00e9 \u00e0 Einsenstein :  <br \/>http:\/\/www.amazon.fr\/Int%C3%A9grale-Eisenstein-S-M-Eisenstein\/dp\/B0017IYWCG\/ref=sr_1_1?ie=UTF8&qid=1455480462&sr=8-1&keywords=eisenstein <br \/> <br \/>Et surtout tout plein de films de John Mctiernan : <br \/>http:\/\/www.amazon.fr\/s\/ref=nb_sb_noss?__mk_fr_FR=%C3%85M%C3%85%C5%BD%C3%95%C3%91&url=search-alias%3Daps&field-keywords=john+mctiernan <br \/> <br \/>Tuce","id":"x3r6gba","thumbnail_720_url":"http:\/\/s1.dmcdn.net\/TSxkZ\/x720-eCm.jpg","title":"CHROMA S01.02. ROLLERBALL"},{"created_time":1452427064,"description":"CHROMA est une CHROnique de cin\u00e9MA sur Dailymotion, dont la premi\u00e8re saison se compose de dix \u00e9pisodes, \u00e0 raison d\u2019un par mois, d\u2019une dur\u00e9e comprise entre quinze et vingt minutes. Chaque \u00e9pisode est consacr\u00e9 \u00e0 un film en particulier. <br \/> <br \/>Nous sommes de retour !  Et on commence par un nanar l\u00e9gendaire dont j'avais tr\u00e8s envie de parler depuis un moment d\u00e9j\u00e0. Troll 2. <br \/> <br \/>Merci \u00e0 tous les contributeurs d'Ulule, sans vous cette vid\u00e9o ne serait pas la m\u00eame. <br \/> <br \/>Voici la playlist Spotify officielle de CHROMA : spotify:user:2bash:playlist:6Qj7nQKpOQxJz3Ol00SFop <br \/> <br \/>Vous pouvez vous procurer le film Troll 2 en DVD ici : http:\/\/www.amazon.fr\/Troll-2-Michael-Stephenson\/dp\/B0006NLY24\/ref=sr_1_1?s=dvd&ie=UTF8&qid=1452439435&sr=1-1&keywords=troll+2 <br \/> <br \/>et Best Worst Movie l\u00e0 (Attention, il s'agit d'un DVD Zone 1, en VO non sous-titr\u00e9, il n'est jamais sorti en France.) : http:\/\/www.amazon.fr\/Best-Worst-Movie-USA-Zone\/dp\/B003X3BYHE\/ref=sr_1_2?s=dvd&ie=UTF8&qid=1452439565&sr=1-2&keywords=best+worst+movie <br \/> <br \/>La Philosophie des films de No\u00ebl Carroll peut \u00eatre trouv\u00e9 ici : http:\/\/www.amazon.fr\/philosophie-films-No%C3%ABl-Carroll\/dp\/2711626016\/ref=sr_1_3?ie=UTF8&qid=1452439669&sr=8-3&keywords=la+philosophie+des+films","id":"x3lnp8j","thumbnail_720_url":"http:\/\/s2.dmcdn.net\/SAkrp\/x720-vtA.jpg","title":"CHROMA S01.01. TROLL2"},{"created_time":1446744989,"description":"Deuxi\u00e8me partie de la rediffusion du 2\u00e8me live du Screen \u00c9tait Presque Parfait sur Twitch le 27\/10\/2015 \u00e0 21h00. <br \/> <br \/>Cha\u00eene Twitch : http:\/\/www.twitch.tv\/karimdebbache <br \/>Page Facebook : https:\/\/www.facebook.com\/karim.debbache.3\/","id":"x3cl49c","thumbnail_720_url":"http:\/\/s2.dmcdn.net\/Pc9u2\/x720-vy6.jpg","title":"LE SCREEN \u00c9TAIT PRESQUE PARFAIT \/\/ EP.02 \/\/ MEGAMAN 2 \/\/ PART 2"},{"created_time":1446744742,"description":"Troisi\u00e8me et derni\u00e8re partie de la rediffusion du 2\u00e8me live du Screen \u00c9tait Presque Parfait sur Twitch le 27\/10\/2015 \u00e0 21h00. <br \/> <br \/>Cha\u00eene Twitch : http:\/\/www.twitch.tv\/karimdebbache <br \/>Page Facebook : https:\/\/www.facebook.com\/karim.debbache.3\/","id":"x3cl4ae","thumbnail_720_url":"http:\/\/s1.dmcdn.net\/Pc996\/x720-ajH.jpg","title":"LE SCREEN \u00c9TAIT PRESQUE PARFAIT \/\/ EP.02 \/\/ MEGAMAN 2 \/\/ PART 3"},{"created_time":1446744648,"description":"Premi\u00e8re partie de la rediffusion du 2\u00e8me live du Screen \u00c9tait Presque Parfait sur Twitch le 27\/10\/2015 \u00e0 21h00. <br \/> <br \/>Cha\u00eene Twitch : http:\/\/www.twitch.tv\/karimdebbache <br \/>Page Facebook : https:\/\/www.facebook.com\/karim.debbache.3\/","id":"x3cl485","thumbnail_720_url":"http:\/\/s2.dmcdn.net\/Pc9iU\/x720-OtH.jpg","title":"LE SCREEN \u00c9TAIT PRESQUE PARFAIT \/\/ EP.02 \/\/ MEGAMAN 2 \/\/ PART 1"},{"created_time":1445550302,"description":"","id":"x3ao47s","thumbnail_720_url":"http:\/\/s1.dmcdn.net\/PCpUh\/x720-J_6.jpg","title":"Merci !"},{"created_time":1445512313,"description":"On est de retour ! <br \/>\u00c7a se passe ici : <br \/>http:\/\/fr.ulule.com\/chroma-saison-1\/","id":"x3al9ot","thumbnail_720_url":"http:\/\/s2.dmcdn.net\/PBsXv\/x720-sO8.png","title":"CHROMA - Saison 1 sur Ulule"},{"created_time":1397653104,"description":"Crossed Scott Pilgrim vs the World 16 Avril 2014<br \/>Pour son dernier \u00e9pisode, Crossed s'int\u00e9resse au cas de l'excellent film d'Edgar Wright, Scott Pilgrim vs the World.","id":"x1otfk7","thumbnail_720_url":"http:\/\/s1.dmcdn.net\/EPhcu\/x720-mkN.jpg","title":"Crossed - Scott Pilgrim vs the World"},{"created_time":1396377463,"description":"Crossed Tron 02 Avril 2014<br \/>Cette semaine, Crossed se penche sur le cas de Tron, l'une des pierres angulaires de la culture geek et oeuvre bien plus sujette \u00e0 la r\u00e9flexion qu'on peut le penser.","id":"x1l71cm","thumbnail_720_url":"http:\/\/s2.dmcdn.net\/EE8SV\/x720-Cm6.jpg","title":"Crossed - Tron"},{"created_time":1395152533,"description":"Crossed The Wizard 19 Mars 2014<br \/>Aujourd'hui, Karim Debbache et son \u00e9quipe s'int\u00e9ressent de plus pr\u00e8s \u00e0 The Wizard, un film aux allures d\u2019ode au placement de produits.","id":"x1i1dth","thumbnail_720_url":"http:\/\/s2.dmcdn.net\/D7Qwc\/x720-gnT.jpg","title":"Crossed - The Wizard"}]}